…
## Probalem 1

**Introduction and Goal of the Report**

The raw data record the weights of three dogs named “Simon, Gagne, and
Raisin” over 2 years with a standard object weighed on a dedicated
scale. There are 206 rows and 6 columns. Observations are weight records
of the three dogs through time. It also includes occasional notes mainly
is time spent in a kennel.

The goal of the report is to

**Import, tidy, and clean the data**

    ## # A tibble: 202 x 5
    ##    date                raisin_lbs simone_lbs gagne_lbs std_lbs
    ##    <dttm>                   <dbl>      <dbl>     <dbl>   <dbl>
    ##  1 2018-08-12 00:00:00       19.8       10.9      10.6    NA  
    ##  2 2018-08-19 00:00:00       20.2       11.1      10.8    21.0
    ##  3 2018-08-22 00:00:00       20.2       11.2      10.8    21.0
    ##  4 2018-08-24 00:00:00       19.8       11.2      11.1    21.0
    ##  5 2018-08-27 00:00:00       19.4       10.5      10.4    21.0
    ##  6 2018-08-29 00:00:00       19.4       11        11.1    21.0
    ##  7 2018-08-31 00:00:00       19.6       11        10.8    21.0
    ##  8 2018-09-02 00:00:00       19.6       10.8      10.6    21.0
    ##  9 2018-09-03 00:00:00       19.5       10.9      10.8    21.0
    ## 10 2018-09-04 00:00:00       19.6       11        10.9    21.0
    ## # ... with 192 more rows
…
